^C:\REPOS\OPERATIONARCHIVE\OPERATIONARCHIVE\OPERATIONARCHIVE\CLIENT.CPP|C:\REPOS\OPERATIONARCHIVE\OPERATIONARCHIVE\OPERATIONARCHIVE\OPERATIONARCHIVE.CPP
C:\REPOS\OPERATIONARCHIVE\OPERATIONARCHIVE\OPERATIONARCHIVE\DEBUG\VC142.PDB
C:\REPOS\OPERATIONARCHIVE\OPERATIONARCHIVE\OPERATIONARCHIVE\DEBUG\VC142.IDB
C:\REPOS\OPERATIONARCHIVE\OPERATIONARCHIVE\OPERATIONARCHIVE\DEBUG\OPERATIONARCHIVE.OBJ
^C:\REPOS\OPERATIONARCHIVE\OPERATIONARCHIVE\OPERATIONARCHIVE\OPERATIONARCHIVE.CPP
C:\REPOS\OPERATIONARCHIVE\OPERATIONARCHIVE\OPERATIONARCHIVE\DEBUG\OPERATIONARCHIVE.OBJ
^C:\REPOS\OPERATIONARCHIVE\OPERATIONARCHIVE\OPERATIONARCHIVE\CLIENT.CPP
C:\REPOS\OPERATIONARCHIVE\OPERATIONARCHIVE\OPERATIONARCHIVE\DEBUG\VC142.PDB
C:\REPOS\OPERATIONARCHIVE\OPERATIONARCHIVE\OPERATIONARCHIVE\DEBUG\VC142.IDB
C:\REPOS\OPERATIONARCHIVE\OPERATIONARCHIVE\OPERATIONARCHIVE\DEBUG\CLIENT.OBJ
